1 10 20
1 48 112
11 21 21
100 200 125
201 210 89
310 390 144
405 445 134
570 600 119
621 728 171
750 899 179
900 1000 174
1002 1100 169
1100 1172 182
1250 1500 177
1575 1890 180
1901 2020 175
2050 2070 157
2080 3042 217
3078 4600 238
4600 6000 236
6000 6042 187
7020 7100 195
8222 8322 203
9200 9201 48
10000 10003 180
10050 10097 224
15025 16026 271
16458 16459 116
25000 25050 158
37000 37001 143
41212 42000 257
50000 50050 234
55000 55028 216
62000 63010 286
63011 63012 131
67809 70000 312
70020 70120 250
82300 82310 152
85000 85750 302
90000 91500 333
92500 93000 315
94999 95002 147
99999 100000 227
100000 100001 129
100050 100100 235
210000 210500 342
350000 355510 379
493750 494750 307
572000 572030 284
645120 645127 124
700000 700100 336
798000 798500 300
802000 804000 388
804500 805000 313
878000 878001 127
900000 900001 189
902000 902220 295
950000 951200 414
975000 975010 202
978900 978920 184
999000 999100 277
999997 999999 259
10 1 20
21 11 21
200 100 125
600 570 119
799 798 122
899 810 179
4000 3999 189
6042 6000 187
8023 8022 190
7900 7899 102
70120 70020 250
100001 100000 129
200020 200000 311
350000 349000 366
420000 419500 281
500000 499999 258
578000 577700 253
645127 645120 124
951200 950000 414
999100 999000 277
999999 999998 259
1 1 1
11 11 15
100 100 26
200 200 27
500 500 111
721 721 47
823 823 135
999 999 50
1000 1000 112
100000 100000 129
200000 200000 130
300000 300000 53
399999 399999 229
499999 499999 258
550000 550000 134
675000 675000 85
799999 799999 230
850000 850000 83
900000 900000 158
999999 999999 259
